{
    "id" : "eu.a11s.Encore.Devel",
    "runtime" : "org.gnome.Platform",
    "runtime-version" : "47",
    "sdk" : "org.gnome.Sdk",
    "sdk-extensions" : [
        "org.freedesktop.Sdk.Extension.rust-stable",
        "org.freedesktop.Sdk.Extension.llvm19"
    ],
    "command" : "encore",
    "finish-args" : [
        "--share=ipc",
        "--share=network",
        "--socket=fallback-x11",
        "--socket=wayland",
        "--socket=pulseaudio",
        "--own-name=org.mpris.MediaPlayer2.eu.a11s.Encore",
        "--device=dri",
        "--env=RUST_LOG=encore=debug",
        "--env=G_MESSAGES_DEBUG=none",
        "--env=RUST_BACKTRACE=1"
    ],
    "build-options" : {
        "append-path" : "/usr/lib/sdk/rust-stable/bin:/usr/lib/sdk/llvm19/bin",
        "build-args" : [
            "--share=network"
        ],
        "env" : {
            "CARGO_TARGET_X86_64_UNKNOWN_LINUX_GNU_LINKER" : "clang",
            "CARGO_REGISTRIES_CRATES_IO_PROTOCOL" : "sparse",
            "CARGO_TARGET_X86_64_UNKNOWN_LINUX_GNU_RUSTFLAGS" : "-C link-arg=-fuse-ld=/usr/lib/sdk/rust-stable/bin/mold",
            "CARGO_TARGET_AARCH64_UNKNOWN_LINUX_GNU_LINKER" : "clang",
            "CARGO_TARGET_AARCH64_UNKNOWN_LINUX_GNU_RUSTFLAGS" : "-C link-arg=-fuse-ld=/usr/lib/sdk/rust-stable/bin/mold"
        },
        "test-args" : [
            "--socket=x11",
            "--share=network"
        ]
    },
    "modules" : [
        "python3-modules.json",
        {
            "name" : "encore",
            "buildsystem" : "meson",
            "run-tests" : true,
            "config-opts" : [
                "-Dprofile=development",
                "--libdir=lib"
            ],
            "sources" : [
                {
                    "type" : "dir",
                    "path" : "../"
                }
            ]
        }
    ]
}
