{
    "name": "python3-modules",
    "buildsystem": "simple",
    "build-commands": [],
    "modules": [
        {
            "name": "python3-pyyaml",
            "buildsystem": "simple",
            "build-commands": [
                "pip3 install --verbose --exists-action=i --no-index --find-links=\"file://${PWD}\" --prefix=${FLATPAK_DEST} \"pyyaml\" --no-build-isolation"
            ],
            "sources": [
                {
                    "type": "file",
                    "url": "https://files.pythonhosted.org/packages/ff/08/b6768d9f2da231c1396490e91471ffebb12b299a65cb369c27ec0e2a50c6/pyyaml-6.0.2rc1.tar.gz",
                    "sha256": "826fb4d5ac2c48b9d6e71423def2669d4646c93b6c13612a71b3ac7bb345304b"
                }
            ]
        },
        {
            "name": "python3-dbus-next",
            "buildsystem": "simple",
            "build-commands": [
                "pip3 install --verbose --exists-action=i --no-index --find-links=\"file://${PWD}\" --prefix=${FLATPAK_DEST} \"dbus-next\" --no-build-isolation"
            ],
            "sources": [
                {
                    "type": "file",
                    "url": "https://files.pythonhosted.org/packages/d2/fc/c0a3f4c4eaa5a22fbef91713474666e13d0ea2a69c84532579490a9f2cc8/dbus_next-0.2.3-py3-none-any.whl",
                    "sha256": "58948f9aff9db08316734c0be2a120f6dc502124d9642f55e90ac82ffb16a18b"
                }
            ]
        },
        {
            "name": "python3-requests",
            "buildsystem": "simple",
            "build-commands": [
                "pip3 install --verbose --exists-action=i --no-index --find-links=\"file://${PWD}\" --prefix=${FLATPAK_DEST} \"requests\" --no-build-isolation"
            ],
            "sources": [
                {
                    "type": "file",
                    "url": "https://files.pythonhosted.org/packages/1c/d5/c84e1a17bf61d4df64ca866a1c9a913874b4e9bdc131ec689a0ad013fb36/certifi-2024.7.4-py3-none-any.whl",
                    "sha256": "c198e21b1289c2ab85ee4e67bb4b4ef3ead0892059901a8d5b622f24a1101e90"
                },
                {
                    "type": "file",
                    "url": "https://files.pythonhosted.org/packages/63/09/c1bc53dab74b1816a00d8d030de5bf98f724c52c1635e07681d312f20be8/charset-normalizer-3.3.2.tar.gz",
                    "sha256": "f30c3cb33b24454a82faecaf01b19c18562b1e89558fb6c56de4d9118a032fd5"
                },
                {
                    "type": "file",
                    "url": "https://files.pythonhosted.org/packages/e5/3e/741d8c82801c347547f8a2a06aa57dbb1992be9e948df2ea0eda2c8b79e8/idna-3.7-py3-none-any.whl",
                    "sha256": "82fee1fc78add43492d3a1898bfa6d8a904cc97d8427f683ed8e798d07761aa0"
                },
                {
                    "type": "file",
                    "url": "https://files.pythonhosted.org/packages/f9/9b/335f9764261e915ed497fcdeb11df5dfd6f7bf257d4a6a2a686d80da4d54/requests-2.32.3-py3-none-any.whl",
                    "sha256": "70761cfe03c773ceb22aa2f671b4757976145175cdfca038c02654d061d6dcc6"
                },
                {
                    "type": "file",
                    "url": "https://files.pythonhosted.org/packages/ca/1c/89ffc63a9605b583d5df2be791a27bc1a42b7c32bab68d3c8f2f73a98cd4/urllib3-2.2.2-py3-none-any.whl",
                    "sha256": "a448b2f64d686155468037e1ace9f2d2199776e17f0a46610480d311f73e3472"
                }
            ]
        },
        {
            "name": "python3-setuptools_rust",
            "buildsystem": "simple",
            "build-commands": [
                "pip3 install --verbose --exists-action=i --no-index --find-links=\"file://${PWD}\" --prefix=${FLATPAK_DEST} \"setuptools_rust\" --no-build-isolation"
            ],
            "sources": [
                {
                    "type": "file",
                    "url": "https://files.pythonhosted.org/packages/6a/23/8146aad7d88f4fcb3a6218f41a60f6c2d4e3a72de72da1825dc7c8f7877c/semantic_version-2.10.0-py2.py3-none-any.whl",
                    "sha256": "de78a3b8e0feda74cabc54aab2da702113e33ac9d9eb9d2389bcf1f58b7d9177"
                },
                {
                    "type": "file",
                    "url": "https://files.pythonhosted.org/packages/f7/7f/8b1c33598b03ad612b8ced223f9ca54076b789fabf5a66ce37cc096d9cf7/setuptools_rust-1.9.0-py3-none-any.whl",
                    "sha256": "409caf49dcf7ad9bd510b4bf4011fbad504e745fae98f57fe1c06f3a97719638"
                }
            ]
        },
        {
            "name": "python3-maturin",
            "buildsystem": "simple",
            "build-commands": [
                "pip3 install --verbose --exists-action=i --no-index --find-links=\"file://${PWD}\" --prefix=${FLATPAK_DEST} \"maturin\" --no-build-isolation"
            ],
            "sources": [
                {
                    "type": "file",
                    "url": "https://files.pythonhosted.org/packages/80/da/a4bbd6e97f3645f4ebd725321aa235e22e31037dfd92caf4539f721c0a5a/maturin-1.7.0.tar.gz",
                    "sha256": "1ba5277dd7832dc6181d69a005182b97b3520945825058484ffd9296f2efb59c"
                }
            ]
        },
        {
            "name": "python3-tomli",
            "buildsystem": "simple",
            "build-commands": [
                "pip3 install --verbose --exists-action=i --no-index --find-links=\"file://${PWD}\" --prefix=${FLATPAK_DEST} \"tomli\" --no-build-isolation"
            ],
            "sources": [
                {
                    "type": "file",
                    "url": "https://files.pythonhosted.org/packages/97/75/10a9ebee3fd790d20926a90a2547f0bf78f371b2f13aa822c759680ca7b9/tomli-2.0.1-py3-none-any.whl",
                    "sha256": "939de3e7a6161af0c887ef91b7d41a53e7c5a1ca976325f429cb46ea9bc30ecc"
                }
            ]
        },
        {
            "name": "python3-beets",
            "buildsystem": "simple",
            "build-commands": [
                "pip3 install --verbose --exists-action=i --no-index --find-links=\"file://${PWD}\" --prefix=${FLATPAK_DEST} \"beets\" --no-build-isolation"
            ],
            "sources": [
                {
                    "type": "file",
                    "url": "https://files.pythonhosted.org/packages/cd/e5/af35f7ea75cf72f2cd079c95ee16797de7cd71f29ea7c68ae5ce7be1eda0/PyYAML-6.0.1.tar.gz",
                    "sha256": "bfdf460b1736c775f2ba9f6a92bca30bc2095067b8a9d77876d1fad6cc3b4a43"
                },
                {
                    "type": "file",
                    "url": "https://files.pythonhosted.org/packages/84/b7/6ec57841fb67c98f52fc8e4a2d96df60059637cba077edc569a302a8ffc7/Unidecode-1.3.8-py3-none-any.whl",
                    "sha256": "d130a61ce6696f8148a3bd8fe779c99adeb4b870584eeb9526584e9aa091fd39"
                },
                {
                    "type": "file",
                    "url": "https://files.pythonhosted.org/packages/a9/60/9d38d3f3706c36ec20146bf8add05213e46138c710add8c68dc5a5dea3ec/beets-2.0.0-py3-none-any.whl",
                    "sha256": "6fe596f578ce50652fc634d399af67bc0450b325c349989af781805599fcedb3"
                },
                {
                    "type": "file",
                    "url": "https://files.pythonhosted.org/packages/32/1f/cf496479814d41fc252004482deeb90b740b4a6a391a3355c0b11d7e0abf/confuse-2.0.1-py3-none-any.whl",
                    "sha256": "9b9e5bbc70e2cb9b318bcab14d917ec88e21bf1b724365e3815eb16e37aabd2a"
                },
                {
                    "type": "file",
                    "url": "https://files.pythonhosted.org/packages/cd/68/5e295b66e96675fd32e6cb71b26e71fe3c45d9279dc64c3a20f00c174135/jellyfish-1.0.4.tar.gz",
                    "sha256": "72aabb3bedd513cdd20712242fd51173b59972c0b146b7a0b9c6f32f1656293f"
                },
                {
                    "type": "file",
                    "url": "https://files.pythonhosted.org/packages/f7/bd/cc250fbe08ec4ac7631bc991f91703945e089c2c73429954f5a51e62a402/mediafile-0.12.0-py3-none-any.whl",
                    "sha256": "6b6fdb61bb151cd9d6a8a8821ce28adee604ede8a9a992f0d9dd3e835ef4899b"
                },
                {
                    "type": "file",
                    "url": "https://files.pythonhosted.org/packages/90/ab/0301c945a704218bc9435f0e3c88884f6b19ef234d8899fb47ce1ccfd0c9/munkres-1.1.4-py2.py3-none-any.whl",
                    "sha256": "6b01867d4a8480d865aea2326e4b8f7c46431e9e55b4a2e32d989307d7bced2a"
                },
                {
                    "type": "file",
                    "url": "https://files.pythonhosted.org/packages/6d/fd/cef7b2580436910ccd2f8d3deec0f3c81743e15c0eb5b97dde3fbf33c0c8/musicbrainzngs-0.7.1-py2.py3-none-any.whl",
                    "sha256": "e841a8f975104c0a72290b09f59326050194081a5ae62ee512f41915090e1a10"
                },
                {
                    "type": "file",
                    "url": "https://files.pythonhosted.org/packages/b0/7a/620f945b96be1f6ee357d211d5bf74ab1b7fe72a9f1525aafbfe3aee6875/mutagen-1.47.0-py3-none-any.whl",
                    "sha256": "edd96f50c5907a9539d8e5bba7245f62c9f520aef333d13392a79a4f70aca719"
                },
                {
                    "type": "file",
                    "url": "https://files.pythonhosted.org/packages/26/9f/ad63fc0248c5379346306f8668cda6e2e2e9c95e01216d2b8ffd9ff037d0/typing_extensions-4.12.2-py3-none-any.whl",
                    "sha256": "04e5ca0351e0f3f85c6853954072df659d0d13fac324d0072316b67d7794700d"
                }
            ]
        }
    ]
}