<?xml version="1.0" encoding="UTF-8" standalone="no"?>
<svg
   height="16"
   viewBox="0 0 16 16"
   width="16"
   version="1.1"
   id="svg1"
   xmlns="http://www.w3.org/2000/svg"
   xmlns:svg="http://www.w3.org/2000/svg">
  <defs
     id="defs1" />
  <g
     fill="#222222"
     id="g2"
     transform="translate(-1.003906,-1)">
    <path
       id="path1"
       style="stroke-width:0.75"
       d="m 8.003906,2 c -3.3046841,0 -6,2.6953159 -6,6 0,3.304685 2.6953159,6 6,6 0.701113,0 1.3736632,-0.122987 2,-0.345703 V 12.03125 c -0.6025891,0.299661 -1.281626,0.46875 -2,0.46875 -2.4843724,0 -4.5,-2.015627 -4.5,-4.5 0,-2.4843724 2.0156276,-4.5 4.5,-4.5 2.484374,0 4.5,2.0156276 4.5,4.5 0,0.7317826 -0.1761,1.4222922 -0.486328,2.033203 0.146683,0.02827 0.296773,0.07607 0.445312,0.152344 h 0.002 l 0.916015,0.46875 C 13.778464,9.8532114 14.003906,8.9521503 14.003906,8 c 0,-3.3046841 -2.695315,-6 -6,-6 z m 0,3.75 c -1.2421862,0 -2.25,1.0078137 -2.25,2.25 0,1.2421868 1.0078138,2.25 2.25,2.25 1.242186,0 2.25,-1.0078132 2.25,-2.25 0,-1.2421863 -1.007814,-2.25 -2.25,-2.25 z m 0,0.75 c 0.8291009,0 1.5,0.6708992 1.5,1.5 0,0.8291012 -0.6708991,1.5 -1.5,1.5 -0.8291009,0 -1.5,-0.6708988 -1.5,-1.5 0,-0.8291008 0.6708991,-1.5 1.5,-1.5 z m 0,0.75 c -0.4130853,0 -0.75,0.3369146 -0.75,0.75 0,0.4130856 0.3369147,0.75 0.75,0.75 0.4130853,0 0.75,-0.3369144 0.75,-0.75 0,-0.4130854 -0.3369147,-0.75 -0.75,-0.75 z" />
    <path
       d="m 11.003906,11.643208 v 4.716853 c 0,0.643207 0.606909,0.639857 0.606909,0.639857 h 0.06162 c 0.117647,0.0017 0.233427,-0.02177 0.334267,-0.0737 l 4.683474,-2.400302 c 0.207288,-0.103852 0.31373,-0.314904 0.31373,-0.525957 0,-0.211052 -0.106442,-0.422104 -0.313725,-0.52428 l -4.683474,-2.400302 c -0.10084,-0.05193 -0.21662,-0.07538 -0.334267,-0.07538 h -0.06162 c -5e-6,0 -0.606914,0 -0.606914,0.643207 z m 0,0"
       fill="#2e3436"
       id="path1-5-1-3"
       style="fill:#222222;fill-opacity:1;stroke-width:0.452762" />
  </g>
</svg>
