<?xml version="1.0" encoding="UTF-8" standalone="no"?>
<svg
   height="16"
   viewBox="0 0 16 16"
   width="16"
   version="1.1"
   id="svg2"
   xmlns="http://www.w3.org/2000/svg"
   xmlns:svg="http://www.w3.org/2000/svg">
  <defs
     id="defs2" />
  <g
     fill="#222222"
     id="g2">
    <path
       id="path1"
       d="M 7,1 C 5.3437517,1 4,2.3437517 4,4 4,5.6562483 5.3437517,7 7,7 8.6562483,7 10,5.6562483 10,4 10,2.3437517 8.6562483,1 7,1 Z M 5.5,8 C 3.0078145,8 1,9.007814 1,11.5 V 12 c 0,0.999999 1,1 1,1 H 9 V 10.642578 C 9,10.006454 9.4404933,9.4068122 9.8359375,9.1972656 10.231386,8.9877172 10.607422,9 10.607422,9 h 0.06055 c 0.249945,0 0.522799,0.04784 0.791015,0.1855469 h 0.002 l 0.193359,0.099609 C 10.843312,8.4894579 9.7306143,8 8.5,8 Z" />
    <path
       d="m 10,10.643249 v 4.716853 c 0,0.643207 0.606909,0.639857 0.606909,0.639857 h 0.06162 c 0.117647,0.0017 0.233427,-0.02177 0.334267,-0.0737 L 15.68627,13.525957 C 15.893558,13.422105 16,13.211053 16,13 16,12.788948 15.893558,12.577896 15.686275,12.47572 l -4.683474,-2.400302 c -0.10084,-0.05193 -0.21662,-0.07538 -0.334267,-0.07538 h -0.06162 c -5e-6,0 -0.606914,0 -0.606914,0.643207 z m 0,0"
       fill="#2e3436"
       id="path1-5-1"
       style="fill:#222222;fill-opacity:1;stroke-width:0.452762" />
  </g>
</svg>
